{
  "project_info": {
    "project_number": "408961671918",
    "firebase_url": "https://ewrap-fc5a1.firebaseio.com",
    "project_id": "ewrap-fc5a1",
    "storage_bucket": "ewrap-fc5a1.appspot.com"
  },
  "client": [
    {
      "client_info": {
        "mobilesdk_app_id": "1:408961671918:android:d6377ce380a517219d89ff",
        "android_client_info": {
          "package_name": "com.nuevotechsolutions.ewarp"
        }
      },
      "oauth_client": [
        {
          "client_id": "408961671918-js661u2niav8n3de5tq97po6h6fktn1q.apps.googleusercontent.com",
          "client_type": 1,
          "android_info": {
            "package_name": "com.nuevotechsolutions.ewarp",
            "certificate_hash": "4d01d929a6f9fb2501319ac0159cf1f978d44bbe"
          }
        },
        {
          "client_id": "408961671918-hnkeobsoka8fg2s6n5cihmpc940fsak9.apps.googleusercontent.com",
          "client_type": 3
        }
      ],
      "api_key": [
        {
          "current_key": "AIzaSyDvQjaGDPRdRHnGziYKcLuDPASO2Qqldsw"
        }
      ],
      "services": {
        "appinvite_service": {
          "other_platform_oauth_client": [
            {
              "client_id": "408961671918-hnkeobsoka8fg2s6n5cihmpc940fsak9.apps.googleusercontent.com",
              "client_type": 3
            }
          ]
        }
      }
    }
  ],
  "configuration_version": "1"
}